{
    "frontend_url":"https://25a0ee2b.ngrok.io",
    "backend_url":"http://chatbottest.justlogin.com/api",
    "microsoft_app_id":"2ddf7076-f81b-4e62-a91e-3cfd224d2ccc",
    "microsoft_app_secret":"JeroJZbSst4phsBW1Awzxmi",
    "page_access_token":"EAAbFZAWq2STABAO1e50IPkJcjXllsdyIS4brWoy7c5dLEOHVU7hmzUBk72HPUNjnND5jXXjYnkzZBgR04zYTBnGErQ0sZB0ZAgcMKxu3ondRwIJXGpunRB5qjVaFybMNfzh1RiJSLhJCYd3DNHBpDBpgUcoRq4g0C4rZCUHY4VgZDZD"
}